L’ORA - WG1 Working example Spillover (so.sc2)
…
UNRegion_db_unr <- db %>% 
  group_by(disease, unr) %>% 
  filter(time > 2003) %>% 
  filter(unr != "Western Asia") %>% 
  filter(!is.na(human_cases_hab)) %>%
  summarise(human_cases_hab_unr=(sum(human_c_local)/sum(human_pop)*100000)) %>% 
  mutate(name=cut(human_cases_hab_unr, breaks = 3, labels = c("low","medium","high"))) %>% 
  mutate(range=cut(human_cases_hab_unr, breaks = 3))

## `summarise()` has grouped output by 'disease'. You can override using the
## `.groups` argument.

UNRegion_db_unr

## # A tibble: 64 × 5
## # Groups:   disease [4]
##    disease        unr                            human_cases_hab_unr name  range
##    <fct>          <chr>                                        <dbl> <fct> <fct>
##  1 Echinococcosis Australia and New Zealand                   0      low   (-7.…
##  2 Echinococcosis Central Asia                                0      low   (-7.…
##  3 Echinococcosis Eastern Asia                                0      low   (-7.…
##  4 Echinococcosis Eastern Europe                              0.0797 high  (0.0…
##  5 Echinococcosis Latin America and the Caribbe…              0      low   (-7.…
##  6 Echinococcosis Melanesia                                   0      low   (-7.…
##  7 Echinococcosis Micronesia                                  0      low   (-7.…
##  8 Echinococcosis Northern Africa                             0      low   (-7.…
##  9 Echinococcosis Northern America                            0      low   (-7.…
## 10 Echinococcosis Northern Europe                             0.0256 low   (-7.…
## # ℹ 54 more rows
…
